%!PS-Adobe-2.0 EPSF-2.0
%%Title: /home/dcm/cvs/tech-docs/diagram
%%Creator: Dia v0.41
%%CreationDate: Tue May  4 17:07:04 1999
%%For: dcm
%%Magnification: 1.0000
%%Orientation: Portrait
%%BoundingBox: 0 0 518 437
%%Pages: 1
%%BeginSetup
%%EndSetup
%%EndComments
/cp {closepath} bind def
/c {curveto} bind def
/f {fill} bind def
/a {arc} bind def
/ef {eofill} bind def
/ex {exch} bind def
/gr {grestore} bind def
/gs {gsave} bind def
/sa {save} bind def
/rs {restore} bind def
/l {lineto} bind def
/m {moveto} bind def
/rm {rmoveto} bind def
/n {newpath} bind def
/s {stroke} bind def
/sh {show} bind def
/slc {setlinecap} bind def
/slj {setlinejoin} bind def
/slw {setlinewidth} bind def
/srgb {setrgbcolor} bind def
/rot {rotate} bind def
/sc {scale} bind def
/sd {setdash} bind def
/ff {findfont} bind def
/sf {setfont} bind def
/scf {scalefont} bind def
/sw {stringwidth pop} bind def
/tr {translate} bind def

/ellipsedict 8 dict def
ellipsedict /mtrx matrix put
/ellipse
{ ellipsedict begin
   /endangle exch def
   /startangle exch def
   /yrad exch def
   /xrad exch def
   /y exch def
   /x exch def   /savematrix mtrx currentmatrix def
   x y tr xrad yrad sc
   0 0 1 startangle endangle arc
   savematrix setmatrix
   end
} def

/colortogray {
/rgbdata exch store
rgbdata length 3 idiv
/npixls exch store
/rgbindx 0 store
0 1 npixls 1 sub {
grays exch
rgbdata rgbindx       get 20 mul
rgbdata rgbindx 1 add get 32 mul
rgbdata rgbindx 2 add get 12 mul
add add 64 idiv
put
/rgbindx rgbindx 3 add store
} for
grays 0 npixls getinterval
} bind def
/mergeprocs {
dup length
3 -1 roll
dup
length
dup
5 1 roll
3 -1 roll
add
array cvx
dup
3 -1 roll
0 exch
putinterval
dup
4 2 roll
putinterval
} bind def
/colorimage {
pop pop
{colortogray} mergeprocs
image
} bind def

28.346000 -28.346000 scale
-8.758260 -15.079477 translate
%%EndProlog


0.050000 slw
[1.000000] 0 sd
0 slj
0.000000 0.000000 0.000000 srgb
n 20.983300 -0.305222 m 20.983300 6.827219 l 26.983300 6.827219 l 26.983300 -0.305222 l cp s
0.050000 slw
[1.000000] 0 sd
0 slj
0.000000 0.000000 0.000000 srgb
n 8.783260 -0.290794 m 8.783260 15.054477 l 20.113620 15.054477 l 20.113620 -0.290794 l cp s
1.000000 1.000000 1.000000 srgb
n 9.450000 1.300000 m 9.450000 3.300000 l 13.400000 3.300000 l 13.400000 1.300000 l f
0.100000 slw
[] 0 sd
0 slj
0.000000 0.000000 0.000000 srgb
n 9.450000 1.300000 m 9.450000 3.300000 l 13.400000 3.300000 l 13.400000 1.300000 l cp s
1.000000 1.000000 1.000000 srgb
n 15.500000 1.300000 m 15.500000 3.300000 l 19.400000 3.300000 l 19.400000 1.300000 l f
0.100000 slw
[] 0 sd
0 slj
0.000000 0.000000 0.000000 srgb
n 15.500000 1.300000 m 15.500000 3.300000 l 19.400000 3.300000 l 19.400000 1.300000 l cp s
1.000000 1.000000 1.000000 srgb
n 9.500000 4.250000 m 9.500000 6.250000 l 13.350000 6.250000 l 13.350000 4.250000 l f
0.100000 slw
[] 0 sd
0 slj
0.000000 0.000000 0.000000 srgb
n 9.500000 4.250000 m 9.500000 6.250000 l 13.350000 6.250000 l 13.350000 4.250000 l cp s
1.000000 1.000000 1.000000 srgb
n 15.450000 4.250000 m 15.450000 6.250000 l 19.350000 6.250000 l 19.350000 4.250000 l f
0.100000 slw
[] 0 sd
0 slj
0.000000 0.000000 0.000000 srgb
n 15.450000 4.250000 m 15.450000 6.250000 l 19.350000 6.250000 l 19.350000 4.250000 l cp s
1.000000 1.000000 1.000000 srgb
n 11.550000 9.450000 m 11.550000 11.450000 l 17.650000 11.450000 l 17.650000 9.450000 l f
0.100000 slw
[] 0 sd
0 slj
0.000000 0.000000 0.000000 srgb
n 11.550000 9.450000 m 11.550000 11.450000 l 17.650000 11.450000 l 17.650000 9.450000 l cp s
1.000000 1.000000 1.000000 srgb
n 10.683300 13.400000 m 10.683300 14.827220 l 18.483300 14.827220 l 18.483300 13.400000 l f
0.100000 slw
[] 0 sd
0 slj
0.000000 0.000000 0.000000 srgb
n 10.683300 13.400000 m 10.683300 14.827220 l 18.483300 14.827220 l 18.483300 13.400000 l cp s
0.100000 slw
[] 0 sd
0 slc
0.000000 0.000000 0.000000 srgb
n 14.600000 11.450000 m 14.583300 13.400000 l s
0.100000 slw
[] 0 sd
0 slc
0.000000 0.000000 0.000000 srgb
n 11.425000 6.250000 m 14.600000 9.450000 l s
0.100000 slw
[] 0 sd
0 slc
0.000000 0.000000 0.000000 srgb
n 14.600000 9.450000 m 17.400000 6.250000 l s
0.100000 slw
[] 0 sd
0 slc
0.000000 0.000000 0.000000 srgb
n 11.425000 4.250000 m 11.425000 3.300000 l s
0.100000 slw
[] 0 sd
0 slc
0.000000 0.000000 0.000000 srgb
n 17.400000 4.250000 m 17.450000 3.300000 l s
/Courier ff 1.000000 scf sf
0.000000 0.000000 0.000000 srgb
(Local) dup sw 2 div 14.500000 ex sub 0.509206 m gs 1 -1 sc sh gr
/Courier ff 1.000000 scf sf
0.000000 0.000000 0.000000 srgb
(Network) dup sw 2 div 24.150000 ex sub 0.527219 m gs 1 -1 sc sh gr
1.000000 1.000000 1.000000 srgb
n 21.893300 1.282220 m 21.893300 3.282220 l 25.893300 3.282220 l 25.893300 1.282220 l f
0.100000 slw
[] 0 sd
0 slj
0.000000 0.000000 0.000000 srgb
n 21.893300 1.282220 m 21.893300 3.282220 l 25.893300 3.282220 l 25.893300 1.282220 l cp s
/Times-Roman ff 0.700000 scf sf
0.000000 0.000000 0.000000 srgb
(ESD App) dup sw 2 div 23.843300 ex sub 2.509440 m gs 1 -1 sc sh gr
1.000000 1.000000 1.000000 srgb
n 21.943300 4.282220 m 21.943300 6.282220 l 25.843300 6.282220 l 25.843300 4.282220 l f
0.100000 slw
[] 0 sd
0 slj
0.000000 0.000000 0.000000 srgb
n 21.943300 4.282220 m 21.943300 6.282220 l 25.843300 6.282220 l 25.843300 4.282220 l cp s
/Courier ff 0.700000 scf sf
0.000000 0.000000 0.000000 srgb
(libesd) dup sw 2 div 23.876500 ex sub 5.459440 m gs 1 -1 sc sh gr
0.050000 slw
[] 0 sd
0 slc
0.000000 0.000000 0.000000 srgb
n 23.893300 3.282220 m 23.893300 4.282220 l s
0.100000 slw
[] 0 sd
0 slj
0 slc
0.000000 0.000000 0.000000 srgb
n 17.650000 10.450000 m 23.893300 10.450000 l 23.893300 6.282220 l s
0 slj
1.000000 1.000000 1.000000 srgb
n 18.450000 10.050000 m 17.650000 10.450000 l 18.450000 10.850000 l f
0.100000 slw
[] 0 sd
0 slj
0.000000 0.000000 0.000000 srgb
n 18.450000 10.050000 m 17.650000 10.450000 l 18.450000 10.850000 l cp s
/Courier ff 0.800000 scf sf
/Courier ff 0.700000 scf sf
0.000000 0.000000 0.000000 srgb
(libesd) dup sw 2 div 11.465900 ex sub 5.402570 m gs 1 -1 sc sh gr
/Courier ff 0.700000 scf sf
0.000000 0.000000 0.000000 srgb
(libesd) dup sw 2 div 17.365900 ex sub 5.402570 m gs 1 -1 sc sh gr
/Courier ff 0.700000 scf sf
0.000000 0.000000 0.000000 srgb
(ESD App) dup sw 2 div 11.478000 ex sub 2.402570 m gs 1 -1 sc sh gr
/Courier ff 0.700000 scf sf
0.000000 0.000000 0.000000 srgb
(ESD App) dup sw 2 div 17.428000 ex sub 2.452570 m gs 1 -1 sc sh gr
/Courier ff 1.000000 scf sf
0.000000 0.000000 0.000000 srgb
(ESD) dup sw 2 div 14.633300 ex sub 10.177200 m gs 1 -1 sc sh gr
0.000000 0.000000 0.000000 srgb
(Daemon) dup sw 2 div 14.633300 ex sub 11.177200 m gs 1 -1 sc sh gr
/Courier ff 1.000000 scf sf
0.000000 0.000000 0.000000 srgb
(Sound Device) dup sw 2 div 14.583300 ex sub 14.377200 m gs 1 -1 sc sh gr
showpage
