%!PS-Adobe-2.0 EPSF-2.0
%%Title: hindi.eps
%%Creator: fig2dev Version 3.2 Patchlevel 1
%%CreationDate: Fri Apr 30 16:04:02 1999
%%For: otaylor@fresnel.labs.redhat.com (Owen Taylor,,547-0012 x249)
%%Orientation: Portrait
%%BoundingBox: 0 0 408 116
%%Pages: 0
%%BeginSetup
%%EndSetup
%%Magnification: 1.0000
%%EndComments
/$F2psDict 200 dict def
$F2psDict begin
$F2psDict /mtrx matrix put
/col-1 {0 setgray} bind def
/col0 {0.000 0.000 0.000 srgb} bind def
/col1 {0.000 0.000 1.000 srgb} bind def
/col2 {0.000 1.000 0.000 srgb} bind def
/col3 {0.000 1.000 1.000 srgb} bind def
/col4 {1.000 0.000 0.000 srgb} bind def
/col5 {1.000 0.000 1.000 srgb} bind def
/col6 {1.000 1.000 0.000 srgb} bind def
/col7 {1.000 1.000 1.000 srgb} bind def
/col8 {0.000 0.000 0.560 srgb} bind def
/col9 {0.000 0.000 0.690 srgb} bind def
/col10 {0.000 0.000 0.820 srgb} bind def
/col11 {0.530 0.810 1.000 srgb} bind def
/col12 {0.000 0.560 0.000 srgb} bind def
/col13 {0.000 0.690 0.000 srgb} bind def
/col14 {0.000 0.820 0.000 srgb} bind def
/col15 {0.000 0.560 0.560 srgb} bind def
/col16 {0.000 0.690 0.690 srgb} bind def
/col17 {0.000 0.820 0.820 srgb} bind def
/col18 {0.560 0.000 0.000 srgb} bind def
/col19 {0.690 0.000 0.000 srgb} bind def
/col20 {0.820 0.000 0.000 srgb} bind def
/col21 {0.560 0.000 0.560 srgb} bind def
/col22 {0.690 0.000 0.690 srgb} bind def
/col23 {0.820 0.000 0.820 srgb} bind def
/col24 {0.500 0.190 0.000 srgb} bind def
/col25 {0.630 0.250 0.000 srgb} bind def
/col26 {0.750 0.380 0.000 srgb} bind def
/col27 {1.000 0.500 0.500 srgb} bind def
/col28 {1.000 0.630 0.630 srgb} bind def
/col29 {1.000 0.750 0.750 srgb} bind def
/col30 {1.000 0.880 0.880 srgb} bind def
/col31 {1.000 0.840 0.000 srgb} bind def

end
save
-72.0 153.0 translate
1 -1 scale

/cp {closepath} bind def
/ef {eofill} bind def
/gr {grestore} bind def
/gs {gsave} bind def
/sa {save} bind def
/rs {restore} bind def
/l {lineto} bind def
/m {moveto} bind def
/rm {rmoveto} bind def
/n {newpath} bind def
/s {stroke} bind def
/sh {show} bind def
/slc {setlinecap} bind def
/slj {setlinejoin} bind def
/slw {setlinewidth} bind def
/srgb {setrgbcolor} bind def
/rot {rotate} bind def
/sc {scale} bind def
/sd {setdash} bind def
/ff {findfont} bind def
/sf {setfont} bind def
/scf {scalefont} bind def
/sw {stringwidth} bind def
/tr {translate} bind def
/tnt {dup dup currentrgbcolor
  4 -2 roll dup 1 exch sub 3 -1 roll mul add
  4 -2 roll dup 1 exch sub 3 -1 roll mul add
  4 -2 roll dup 1 exch sub 3 -1 roll mul add srgb}
  bind def
/shd {dup dup currentrgbcolor 4 -2 roll mul 4 -2 roll mul
  4 -2 roll mul srgb} bind def
/$F2psBegin {$F2psDict begin /$F2psEnteredState save def} def
/$F2psEnd {$F2psEnteredState restore end} def
%%EndProlog

$F2psBegin
10 setmiterlimit
n -1000 3550 m -1000 -1000 l 8990 -1000 l 8990 3550 l cp clip
 0.06000 0.06000 sc
% Polyline
%
% Begin Imported X11 Bitmap File: hindi-0.xbm
%
n gs
1217 1200 tr
14.902857 -14.673077 sc
0 -52 tr
0 0 tr
sa
/showpage {} def
col0
 % Bitmap image follows:
175 52 sc
/pix 22 string def
175 52 false
[175 0 0 -52 0 52]
{currentfile pix readhexstring pop}
imagemask
fffffffffffffffffffffffffffffffffffffffc00ff
ffffffffffffffffffffffffffffffffffff
fff8003f
fffffffffffffffffffffffffffffffffffffff0000f
ffffffffffffffffffffffffffff
fffffffffff00007
fffffffffffffffffffffffffffffffffffffff0ff83
ffffffffffffffffffff
fffffffffffffffffff0ffe1
fffffffffffffffffffffffffffffffffffffff0fff9
ffffffffffff
fffffffffffffffffffffffffff0fffd
fffffffffffffffffffffffffffffffffffffff0ffff
ffff
fffffffffffffffffffffffffffffffffff0ffff
fffffffffffffffffffffffffffffffffffffff0
ffff
fffffffffffffffffffffffffffffffffffffff0ffff
000000000003ffffffe000000000007f
ffffff0000ff
000000000001ffffffe000000000003fffffff00007f
800000000000fffffff00000
0000001fffffff80003f
c00000000000fffffff800000000001fffffffc0003f
fffffff0ffffffff
fffffffe0ffffffffffffff0ffff
fffffff0fffffffffffffffe0ffffffffffffff0ffff
fffffff0
fffffffffffffffe0ffffffffffffff0ffff
fffffff0fffffffffffffffe0ffffffffffffff0ffff

ffff0000fffffffffffffffe0ffffffffffffff0ffff
fffe0000ffffffffffffffe60fffffffffff
fff0ffff
fffc0000ffffffffffffffe00ffffffffffffff0ffff
fffc0000fffffff3ffffffe01fff
ffffff3ffff0ffff
fffc3ff0fffffff3ffffffe01fffffffff3ffff0ffff
fffc3ff0fffffff3ffff
ffe03fffffffff3ffff0ffff
fffc3ff0fffffff3fffffff07fffffffff3ffff0ffff
fffc3ff0ffff
fff3fffffff0ffffffffff3ffff0ffff
fffc3ff0fffffff3fffffff8ffffffffff3ffff0ffff
fffc
3ff0fffffc000ffffff8ffffffffc000fff0ffff
fffe3ff0fffffc000ffffffc7fffffffc000fff0
ffff
fffe3ff0fffffff3fffffffe3fffffffff3ffff0ffff
ffff1ff0fffffff3ffffffff1fffffff
ff3ffff0ffff
ffff0ff0fffffff3ffffffff8fffffffff3ffff0ffff
ffff8ff0fffffff3ffffffff
c7ffffffff3ffff0ffff
ffffc7f0fffffff3ffffffffe3ffffffff3ffff0ffff
ffffe3f0fffffff3
fffffffff1ffffffff3ffff0ffff
fffff1f0fffffffffffffffff87ffffffffffff0ffff
fffff8f8
fffffffffffffffffc1ffffffffffff8ffff
fffffcfcffffffffffffffffff1ffffffffffffcffff

ffffffffffffffffffffffffffffffffffffffffffff
ffffffffffffffffffffffffffffffffffff
ffffffff
ffffffffffffffffffffffffffffffffffffffffffff
ffffffffffffffffffffffffffff
ffffffffffffffff
fffffff00fffffffffffffffffffffffffffffffffff
fffffff007ffffffffff
ffffffffffffffffffffffff
fffffff803ffffffffffffffffffffffffffffffffff
fffffffc01ff
ffffffffffffffffffffffffffffffff
fffffffff8ffffffffffffffffffffffffffffffffff
ffff
fffffc7fffffffffffffffffffffffffffffffff
fffffffffe3fffffffffffffffffffffffffffff
ffff
ffffffffff3fffffffffffffffffffffffffffffffff
restore grestore
%
% End Imported PIC File: hindi-0.xbm
%%EndDocument
%
/Times-Roman ff 360.00 scf sf
1500 2550 m
gs 1 -1 sc (T) col0 sh gr
/Times-Roman ff 360.00 scf sf
2475 2550 m
gs 1 -1 sc (RA) col0 sh gr
/Times-Roman ff 360.00 scf sf
3525 2550 m
gs 1 -1 sc (I) col0 sh gr
/Times-Roman ff 360.00 scf sf
3150 2550 m
gs 1 -1 sc (+) col0 sh gr
/Times-Roman ff 360.00 scf sf
2025 2550 m
gs 1 -1 sc (+) col0 sh gr
% Polyline
%
% Begin Imported X11 Bitmap File: hindi-1.xbm
%
n gs
4800 1200 tr
14.828283 -14.673077 sc
0 -52 tr
0 0 tr
sa
/showpage {} def
col0
 % Bitmap image follows:
99 52 sc
/pix 13 string def
99 52 false
[99 0 0 -52 0 52]
{currentfile pix readhexstring pop}
imagemask
ffffffffffffffffffff801fff
ffffffffffffffffffff0007ff
fffffffffffffffffffe0001ff
ff
fffffffffffffffffe0000ff
fffffffffffffffffffe1ff07f
fffffffffffffffffffe1ffc3f
ffff
fffffffffffffffe1fff1f
fffffffffffffffffffe1fff9f
fffffffffffffffffffe1fffff
ffffff
fffffffffffffe1fffff
fffffffffffffffffffe1fffff
fffffffffffffffffffe1fffff
00000000
0003ffffffe0001fff
000000000001ffffffe0000fff
800000000000fffffff00007ff
c000000000
00fffffff80007ff
fffffff0fffffffffffe1fffff
fffffff0fffffffffffe1fffff
ffff00f0ffff
fffffffe1fffff
fffe0070fffffffffffe1fffff
fffc0030fffffffffffe1fffff
fffc0010ffffff
fffffe1fffff
fffe3fc0fffffffffffe1fffff
ffff7fc0ffffffe7fffe1fffff
ffffffc0ffffffe7
fffe1fffff
ffffffc0ffffffe7fffe1fffff
ffffff00ffffffe7fffe1fffff
fffffe00ffffffe7ff
fe1fffff
fffff000ffffffe7fffe1fffff
ffffe000fffff8001ffe1fffff
ffff0010fffff8001ffe
1fffff
ffff0030ffffffe7fffe1fffff
ffff80f0ffffffe7fffe1fffff
ffffc3f0ffffffe7fffe1f
ffff
fffffff0ffffffe7fffe1fffff
fffffff0ffffffe7fffe1fffff
fffffff0ffffffe7fffe1fff
ff
fffffff0fffffffffffe1fffff
fffffffcffffffffffff1fffff
fffffffcffffffffffff9fffff

ffffffffffffffffffffffffff
ffffffffffffffffffffffffff
ffffffffffffffffffffffffff
ff
ffffffffffffffffffffffff
ffffffffffffffffffffffffff
ffffffffffffffffffffffffff
ffff
ffffffffffffffffffffff
ffffffffffffffffffffffffff
ffffffffffffffffffffffffff
ffffff
ffffffffffffffffffff
ffffffffffffffffffffffffff
ffffffffffffffffffffffffff
restore grestore
%
% End Imported PIC File: hindi-1.xbm
%%EndDocument
%
/Times-Roman ff 360.00 scf sf
6000 2550 m
gs 1 -1 sc (I) col0 sh gr
/Times-Roman ff 360.00 scf sf
5625 2550 m
gs 1 -1 sc (+) col0 sh gr
/Times-Roman ff 360.00 scf sf
4800 2550 m
gs 1 -1 sc (TRA) col0 sh gr
% Polyline
%
% Begin Imported X11 Bitmap File: hindi-2.xbm
%
n gs
7275 1200 tr
14.645833 -14.673077 sc
0 -52 tr
0 0 tr
sa
/showpage {} def
col0
 % Bitmap image follows:
48 52 sc
/pix 6 string def
48 52 false
[48 0 0 -52 0 52]
{currentfile pix readhexstring pop}
imagemask
fc00ffffffff
f8003fffffff
f0000fffffff
f00007ffffff
f0ff83ffffff
f0ffe1ffffff
f0fff8ff
ffff
f0fffcffffff
f0ffffffffff
f0ffffffffff
f0ffffffffff
f0ffffffffff
000000000003
0000
00000001
800000000000
c00000000000
f0fffff0ffff
f0fffff0ffff
f0ff00f0ffff
f0fe0070ffff

f0fc0030ffff
f0fc0010ffff
f0fe3fc0ffff
f0ff7fc0ffff
f0ffffc0ffff
f0ffffc0ffff
f0ffff00
ffff
f0fffe00ffff
f0fff000ffff
f0ffe000ffff
f0ff0010ffff
f0ff0030ffff
f0ff80f0ffff
f0ff
c3f0ffff
f0fffff0ffff
f0fffff0ffff
f0fffff0ffff
f0fffff0ffff
f8fffffcffff
fcfffffcffff

ffffffffffff
ffffffffffff
ffffffffffff
ffffffffffff
ffffffffffff
ffffffffffff
ffffffff
ffff
ffffffffffff
ffffffffffff
ffffffffffff
ffffffffffff
ffffffffffff
restore grestore
%
% End Imported PIC File: hindi-2.xbm
%%EndDocument
%
/Times-Roman ff 360.00 scf sf
7275 2550 m
gs 1 -1 sc (TRI) col0 sh gr
% Polyline
7.500 slw
gs  clippath
4647 1098 m 4725 1200 l 4599 1175 l 4714 1246 l 4762 1170 l cp
clip
n 3825 1125 m 3827 1124 l 3833 1121 l 3842 1117 l 3856 1111 l 3875 1102 l
 3899 1091 l 3926 1079 l 3957 1065 l 3990 1051 l 4024 1037 l
 4057 1024 l 4090 1011 l 4121 1000 l 4151 991 l 4179 984 l
 4205 978 l 4229 975 l 4252 974 l 4275 975 l 4296 978 l
 4317 982 l 4338 988 l 4362 996 l 4386 1006 l 4412 1018 l
 4440 1032 l 4469 1047 l 4499 1063 l 4529 1081 l 4560 1099 l
 4590 1117 l 4618 1134 l 4644 1149 l 4667 1163 l 4686 1175 l
 4701 1185 l 4725 1200 l gs col0 s gr gr

% arrowhead
n 4647 1098 m 4725 1200 l 4599 1175 l 4623 1136 l 4647 1098 l  cp gs 0.00 setgray ef gr  col0 s
% Polyline
gs  clippath
7047 1098 m 7125 1200 l 6999 1175 l 7114 1246 l 7162 1170 l cp
clip
n 6225 1125 m 6227 1124 l 6233 1121 l 6242 1117 l 6256 1111 l 6275 1102 l
 6299 1091 l 6326 1079 l 6357 1065 l 6390 1051 l 6424 1037 l
 6457 1024 l 6490 1011 l 6521 1000 l 6551 991 l 6579 984 l
 6605 978 l 6629 975 l 6652 974 l 6675 975 l 6696 978 l
 6717 982 l 6738 988 l 6762 996 l 6786 1006 l 6812 1018 l
 6840 1032 l 6869 1047 l 6899 1063 l 6929 1081 l 6960 1099 l
 6990 1117 l 7018 1134 l 7044 1149 l 7067 1163 l 7086 1175 l
 7101 1185 l 7125 1200 l gs col0 s gr gr

% arrowhead
n 7047 1098 m 7125 1200 l 6999 1175 l 7023 1136 l 7047 1098 l  cp gs 0.00 setgray ef gr  col0 s
/Times-Roman ff 270.00 scf sf
4200 825 m
gs 1 -1 sc (Cluster Formation) dup sw pop 2 div neg 0 rm  col0 sh gr
/Times-Roman ff 270.00 scf sf
6600 825 m
gs 1 -1 sc (Reordering) dup sw pop 2 div neg 0 rm  col0 sh gr
$F2psEnd
rs
