#FIG 3.2
Landscape
Center
Inches
Letter  
100.00
Single
-2
1200 2
6 1200 1200 3825 2550
2 5 0 1 0 -1 100 0 -1 0.000 0 0 -1 0 0 5
	0 hindi-0.xbm
	 1217 1200 3825 1200 3825 1963 1217 1963 1217 1200
4 0 0 100 0 0 24 0.0000 4 255 240 1500 2550 T\001
4 0 0 100 0 0 24 0.0000 4 255 495 2475 2550 RA\001
4 0 0 100 0 0 24 0.0000 4 255 120 3525 2550 I\001
4 0 0 100 0 0 24 0.0000 4 180 210 3150 2550 +\001
4 0 0 100 0 0 24 0.0000 4 180 210 2025 2550 +\001
-6
6 4800 1200 6300 2550
2 5 0 1 0 -1 100 0 -1 0.000 0 0 -1 0 0 5
	0 hindi-1.xbm
	 4800 1200 6268 1200 6268 1963 4800 1963 4800 1200
4 0 0 100 0 0 24 0.0000 4 255 120 6000 2550 I\001
4 0 0 100 0 0 24 0.0000 4 180 210 5625 2550 +\001
4 0 0 100 0 0 24 0.0000 4 255 735 4800 2550 TRA\001
-6
6 7275 1200 8025 2550
2 5 0 1 0 -1 100 0 -1 0.000 0 0 -1 0 0 5
	0 hindi-2.xbm
	 7275 1200 7978 1200 7978 1963 7275 1963 7275 1200
4 0 0 100 0 0 24 0.0000 4 255 600 7275 2550 TRI\001
-6
3 2 0 1 0 7 100 0 -1 0.000 0 1 0 3
	1 1 1.00 90.00 120.00
	 3825 1125 4275 975 4725 1200
	 0.000 -1.000 0.000
3 2 0 1 0 7 100 0 -1 0.000 0 1 0 3
	1 1 1.00 90.00 120.00
	 6225 1125 6675 975 7125 1200
	 0.000 -1.000 0.000
4 1 0 100 0 0 18 0.0000 4 195 2070 4200 825 Cluster Formation\001
4 1 0 100 0 0 18 0.0000 4 255 1245 6600 825 Reordering\001
