#define noname_width 48
#define noname_height 52
static char noname_bits[] = {
 0xc0,0xff,0x00,0x00,0x00,0x00,0xe0,0xff,0x03,0x00,0x00,0x00,0xf0,0xff,0x0f,
 0x00,0x00,0x00,0xf0,0xff,0x1f,0x00,0x00,0x00,0xf0,0x00,0x3e,0x00,0x00,0x00,
 0xf0,0x00,0x78,0x00,0x00,0x00,0xf0,0x00,0xe0,0x00,0x00,0x00,0xf0,0x00,0xc0,
 0x00,0x00,0x00,0xf0,0x00,0x00,0x00,0x00,0x00,0xf0,0x00,0x00,0x00,0x00,0x00,
 0xf0,0x00,0x00,0x00,0x00,0x00,0xf0,0x00,0x00,0x00,0x00,0x00,0xff,0xff,0xff,
 0xff,0xff,0x3f,0xff,0xff,0xff,0xff,0xff,0x7f,0xfe,0xff,0xff,0xff,0xff,0xff,
 0xfc,0xff,0xff,0xff,0xff,0xff,0xf0,0x00,0x00,0xf0,0x00,0x00,0xf0,0x00,0x00,
 0xf0,0x00,0x00,0xf0,0x00,0xff,0xf0,0x00,0x00,0xf0,0x80,0xff,0xf1,0x00,0x00,
 0xf0,0xc0,0xff,0xf3,0x00,0x00,0xf0,0xc0,0xff,0xf7,0x00,0x00,0xf0,0x80,0x03,
 0xfc,0x00,0x00,0xf0,0x00,0x01,0xfc,0x00,0x00,0xf0,0x00,0x00,0xfc,0x00,0x00,
 0xf0,0x00,0x00,0xfc,0x00,0x00,0xf0,0x00,0x00,0xff,0x00,0x00,0xf0,0x00,0x80,
 0xff,0x00,0x00,0xf0,0x00,0xf0,0xff,0x00,0x00,0xf0,0x00,0xf8,0xff,0x00,0x00,
 0xf0,0x00,0xff,0xf7,0x00,0x00,0xf0,0x00,0xff,0xf3,0x00,0x00,0xf0,0x00,0xfe,
 0xf0,0x00,0x00,0xf0,0x00,0x3c,0xf0,0x00,0x00,0xf0,0x00,0x00,0xf0,0x00,0x00,
 0xf0,0x00,0x00,0xf0,0x00,0x00,0xf0,0x00,0x00,0xf0,0x00,0x00,0xf0,0x00,0x00,
 0xf0,0x00,0x00,0xe0,0x00,0x00,0xc0,0x00,0x00,0xc0,0x00,0x00,0xc0,0x00,0x00,
 0x00,0x00,0x00,0x00,0x00,0x00,0x00,0x00,0x00,0x00,0x00,0x00,0x00,0x00,0x00,
 0x00,0x00,0x00,0x00,0x00,0x00,0x00,0x00,0x00,0x00,0x00,0x00,0x00,0x00,0x00,
 0x00,0x00,0x00,0x00,0x00,0x00,0x00,0x00,0x00,0x00,0x00,0x00,0x00,0x00,0x00,
 0x00,0x00,0x00,0x00,0x00,0x00,0x00,0x00,0x00,0x00,0x00,0x00,0x00,0x00,0x00,
 0x00,0x00,0x00,0x00,0x00,0x00,0x00,0x00,0x00,0x00,0x00,0x00};
