%!PS-Adobe-2.0 EPSF-2.0
%%Title: newarch.eps
%%Creator: fig2dev Version 3.2 Patchlevel 1
%%CreationDate: Sun May  9 19:41:46 1999
%%For: otaylor@huygens.redhat.com (Owen Taylor)
%%Orientation: Portrait
%%BoundingBox: 0 0 385 291
%%Pages: 0
%%BeginSetup
%%EndSetup
%%Magnification: 1.0000
%%EndComments
/$F2psDict 200 dict def
$F2psDict begin
$F2psDict /mtrx matrix put
/col-1 {0 setgray} bind def
/col0 {0.000 0.000 0.000 srgb} bind def
/col1 {0.000 0.000 1.000 srgb} bind def
/col2 {0.000 1.000 0.000 srgb} bind def
/col3 {0.000 1.000 1.000 srgb} bind def
/col4 {1.000 0.000 0.000 srgb} bind def
/col5 {1.000 0.000 1.000 srgb} bind def
/col6 {1.000 1.000 0.000 srgb} bind def
/col7 {1.000 1.000 1.000 srgb} bind def
/col8 {0.000 0.000 0.560 srgb} bind def
/col9 {0.000 0.000 0.690 srgb} bind def
/col10 {0.000 0.000 0.820 srgb} bind def
/col11 {0.530 0.810 1.000 srgb} bind def
/col12 {0.000 0.560 0.000 srgb} bind def
/col13 {0.000 0.690 0.000 srgb} bind def
/col14 {0.000 0.820 0.000 srgb} bind def
/col15 {0.000 0.560 0.560 srgb} bind def
/col16 {0.000 0.690 0.690 srgb} bind def
/col17 {0.000 0.820 0.820 srgb} bind def
/col18 {0.560 0.000 0.000 srgb} bind def
/col19 {0.690 0.000 0.000 srgb} bind def
/col20 {0.820 0.000 0.000 srgb} bind def
/col21 {0.560 0.000 0.560 srgb} bind def
/col22 {0.690 0.000 0.690 srgb} bind def
/col23 {0.820 0.000 0.820 srgb} bind def
/col24 {0.500 0.190 0.000 srgb} bind def
/col25 {0.630 0.250 0.000 srgb} bind def
/col26 {0.750 0.380 0.000 srgb} bind def
/col27 {1.000 0.500 0.500 srgb} bind def
/col28 {1.000 0.630 0.630 srgb} bind def
/col29 {1.000 0.750 0.750 srgb} bind def
/col30 {1.000 0.880 0.880 srgb} bind def
/col31 {1.000 0.840 0.000 srgb} bind def

end
save
-8.0 339.0 translate
1 -1 scale

/cp {closepath} bind def
/ef {eofill} bind def
/gr {grestore} bind def
/gs {gsave} bind def
/sa {save} bind def
/rs {restore} bind def
/l {lineto} bind def
/m {moveto} bind def
/rm {rmoveto} bind def
/n {newpath} bind def
/s {stroke} bind def
/sh {show} bind def
/slc {setlinecap} bind def
/slj {setlinejoin} bind def
/slw {setlinewidth} bind def
/srgb {setrgbcolor} bind def
/rot {rotate} bind def
/sc {scale} bind def
/sd {setdash} bind def
/ff {findfont} bind def
/sf {setfont} bind def
/scf {scalefont} bind def
/sw {stringwidth} bind def
/tr {translate} bind def
/tnt {dup dup currentrgbcolor
  4 -2 roll dup 1 exch sub 3 -1 roll mul add
  4 -2 roll dup 1 exch sub 3 -1 roll mul add
  4 -2 roll dup 1 exch sub 3 -1 roll mul add srgb}
  bind def
/shd {dup dup currentrgbcolor 4 -2 roll mul 4 -2 roll mul
  4 -2 roll mul srgb} bind def
/$F2psBegin {$F2psDict begin /$F2psEnteredState save def} def
/$F2psEnd {$F2psEnteredState restore end} def
%%EndProlog

$F2psBegin
10 setmiterlimit
n -1000 6637 m -1000 -1000 l 7537 -1000 l 7537 6637 l cp clip
 0.06000 0.06000 sc
% Polyline
7.500 slw
n 2055 3000 m 1950 3000 1950 3570 105 arcto 4 {pop} repeat
  1950 3675 3495 3675 105 arcto 4 {pop} repeat
  3600 3675 3600 3105 105 arcto 4 {pop} repeat
  3600 3000 2055 3000 105 arcto 4 {pop} repeat
 cp gs col0 s gr 
/Helvetica ff 210.00 scf sf
2700 3300 m
gs 1 -1 sc (Processing) dup sw pop 2 div neg 0 rm  col0 sh gr
/Helvetica ff 210.00 scf sf
2700 3600 m
gs 1 -1 sc (Module) dup sw pop 2 div neg 0 rm  col0 sh gr
% Polyline
n 255 2925 m 150 2925 150 3495 105 arcto 4 {pop} repeat
  150 3600 1695 3600 105 arcto 4 {pop} repeat
  1800 3600 1800 3030 105 arcto 4 {pop} repeat
  1800 2925 255 2925 105 arcto 4 {pop} repeat
 cp gs col0 s gr 
/Helvetica ff 210.00 scf sf
900 3225 m
gs 1 -1 sc (Input) dup sw pop 2 div neg 0 rm  col0 sh gr
/Helvetica ff 210.00 scf sf
900 3480 m
gs 1 -1 sc (Module) dup sw pop 2 div neg 0 rm  col0 sh gr
% Polyline
n 2280 1800 m 2175 1800 2175 2370 105 arcto 4 {pop} repeat
  2175 2475 4470 2475 105 arcto 4 {pop} repeat
  4575 2475 4575 1905 105 arcto 4 {pop} repeat
  4575 1800 2280 1800 105 arcto 4 {pop} repeat
 cp gs col0 s gr 
% Polyline
n 2280 825 m 2175 825 2175 1395 105 arcto 4 {pop} repeat
  2175 1500 4470 1500 105 arcto 4 {pop} repeat
  4575 1500 4575 930 105 arcto 4 {pop} repeat
  4575 825 2280 825 105 arcto 4 {pop} repeat
 cp gs col0 s gr 
% Polyline
n 4155 3150 m 4050 3150 4050 3420 105 arcto 4 {pop} repeat
  4050 3525 4245 3525 105 arcto 4 {pop} repeat
  4350 3525 4350 3255 105 arcto 4 {pop} repeat
  4350 3150 4155 3150 105 arcto 4 {pop} repeat
 cp gs col0 s gr 
% Polyline
n 4830 3150 m 4725 3150 4725 3420 105 arcto 4 {pop} repeat
  4725 3525 5745 3525 105 arcto 4 {pop} repeat
  5850 3525 5850 3255 105 arcto 4 {pop} repeat
  5850 3150 4830 3150 105 arcto 4 {pop} repeat
 cp gs col0 s gr 
% Polyline
 [60] 0 sd
n 3825 2700 m 6000 2700 l 6000 3675 l 3825 3675 l cp gs col0 s gr  [] 0 sd
% Polyline
n 3780 3975 m 3675 3975 3675 4245 105 arcto 4 {pop} repeat
  3675 4350 5145 4350 105 arcto 4 {pop} repeat
  5250 4350 5250 4080 105 arcto 4 {pop} repeat
  5250 3975 3780 3975 105 arcto 4 {pop} repeat
 cp gs col0 s gr 
% Polyline
gs  clippath
3981 4700 m 3900 4800 l 3895 4672 l 3853 4800 l 3938 4828 l cp
clip
n 4125 4425 m 3975 4575 l 3900 4800 l gs col0 s gr gr

% arrowhead
n 3981 4700 m 3900 4800 l 3895 4672 l 3938 4686 l 3981 4700 l  cp gs 0.00 setgray ef gr  col0 s
% Polyline
n 330 4875 m 225 4875 225 5520 105 arcto 4 {pop} repeat
  225 5625 1770 5625 105 arcto 4 {pop} repeat
  1875 5625 1875 4980 105 arcto 4 {pop} repeat
  1875 4875 330 4875 105 arcto 4 {pop} repeat
 cp gs col0 s gr 
% Polyline
n 3255 4875 m 3150 4875 3150 5520 105 arcto 4 {pop} repeat
  3150 5625 4545 5625 105 arcto 4 {pop} repeat
  4650 5625 4650 4980 105 arcto 4 {pop} repeat
  4650 4875 3255 4875 105 arcto 4 {pop} repeat
 cp gs col0 s gr 
% Polyline
n 5505 4875 m 5400 4875 5400 5520 105 arcto 4 {pop} repeat
  5400 5625 6420 5625 105 arcto 4 {pop} repeat
  6525 5625 6525 4980 105 arcto 4 {pop} repeat
  6525 4875 5505 4875 105 arcto 4 {pop} repeat
 cp gs col0 s gr 
% Polyline
gs  clippath
1897 2095 m 2025 2100 l 1925 2181 l 2053 2138 l 2025 2053 l cp
clip
n 1200 2775 m 1201 2773 l 1203 2769 l 1208 2761 l 1214 2749 l 1223 2733 l
 1234 2712 l 1248 2688 l 1263 2660 l 1281 2630 l 1299 2599 l
 1318 2567 l 1337 2535 l 1356 2504 l 1375 2474 l 1393 2447 l
 1411 2421 l 1429 2398 l 1446 2377 l 1464 2358 l 1482 2341 l
 1500 2325 l 1519 2310 l 1540 2296 l 1563 2282 l 1588 2268 l
 1615 2255 l 1645 2241 l 1677 2227 l 1711 2213 l 1747 2199 l
 1784 2185 l 1821 2171 l 1858 2158 l 1893 2146 l 1924 2134 l
 1953 2125 l 1976 2117 l 1995 2110 l 2025 2100 l gs col0 s gr gr

% arrowhead
n 1897 2095 m 2025 2100 l 1925 2181 l 1911 2138 l 1897 2095 l  cp gs 0.00 setgray ef gr  col0 s
% Polyline
gs  clippath
5158 2423 m 5175 2550 l 5079 2465 l 5142 2584 l 5222 2542 l cp
clip
n 4650 2025 m 4652 2026 l 4657 2028 l 4666 2031 l 4678 2036 l 4695 2042 l
 4716 2050 l 4739 2059 l 4764 2069 l 4789 2079 l 4815 2090 l
 4839 2102 l 4862 2113 l 4883 2124 l 4902 2136 l 4919 2148 l
 4935 2161 l 4950 2175 l 4963 2189 l 4976 2204 l 4989 2222 l
 5003 2241 l 5017 2263 l 5032 2287 l 5047 2314 l 5064 2342 l
 5080 2372 l 5096 2401 l 5112 2430 l 5127 2458 l 5140 2483 l
 5151 2504 l 5160 2522 l 5175 2550 l gs col0 s gr gr

% arrowhead
n 5158 2423 m 5175 2550 l 5079 2465 l 5118 2444 l 5158 2423 l  cp gs 0.00 setgray ef gr  col0 s
% Polyline
gs  clippath
4160 3777 m 4125 3900 l 4070 3784 l 4081 3919 l 4171 3911 l cp
clip
n 4200 3600 m 4198 3603 l 4194 3610 l 4187 3622 l 4179 3637 l 4169 3655 l
 4159 3674 l 4149 3692 l 4141 3709 l 4134 3724 l 4129 3737 l
 4125 3750 l 4122 3763 l 4121 3776 l 4120 3791 l 4120 3808 l
 4120 3826 l 4121 3845 l 4122 3863 l 4125 3900 l gs col0 s gr gr

% arrowhead
n 4160 3777 m 4125 3900 l 4070 3784 l 4115 3780 l 4160 3777 l  cp gs 0.00 setgray ef gr  col0 s
% Polyline
gs  clippath
1627 2758 m 1500 2775 l 1585 2679 l 1466 2742 l 1508 2822 l cp
clip
n 2100 2250 m 2099 2252 l 2095 2257 l 2090 2266 l 2082 2278 l 2071 2295 l
 2057 2316 l 2042 2339 l 2025 2364 l 2008 2389 l 1990 2415 l
 1972 2439 l 1955 2462 l 1939 2483 l 1923 2502 l 1907 2519 l
 1891 2535 l 1875 2550 l 1860 2563 l 1843 2576 l 1824 2589 l
 1804 2603 l 1782 2617 l 1757 2632 l 1731 2647 l 1703 2664 l
 1674 2680 l 1645 2696 l 1616 2712 l 1590 2727 l 1565 2740 l
 1544 2751 l 1528 2760 l 1500 2775 l gs col0 s gr gr

% arrowhead
n 1627 2758 m 1500 2775 l 1585 2679 l 1606 2718 l 1627 2758 l  cp gs 0.00 setgray ef gr  col0 s
% Polyline
gs  clippath
1292 4635 m 1200 4725 l 1210 4597 l 1153 4720 l 1234 4758 l cp
clip
n 1200 3750 m 1201 3752 l 1203 3757 l 1206 3766 l 1211 3779 l 1217 3797 l
 1225 3819 l 1235 3846 l 1246 3877 l 1258 3911 l 1270 3946 l
 1282 3982 l 1294 4019 l 1305 4054 l 1316 4088 l 1325 4120 l
 1333 4150 l 1339 4178 l 1344 4205 l 1347 4229 l 1349 4253 l
 1350 4275 l 1349 4299 l 1347 4324 l 1343 4349 l 1337 4376 l
 1329 4404 l 1319 4434 l 1309 4465 l 1296 4497 l 1283 4531 l
 1270 4564 l 1257 4596 l 1244 4626 l 1232 4653 l 1222 4676 l
 1214 4695 l 1200 4725 l gs col0 s gr gr

% arrowhead
n 1292 4635 m 1200 4725 l 1210 4597 l 1251 4616 l 1292 4635 l  cp gs 0.00 setgray ef gr  col0 s
% Polyline
gs  clippath
590 3846 m 675 3750 l 675 3878 l 722 3752 l 638 3720 l cp
clip
n 675 4725 m 674 4723 l 672 4718 l 668 4708 l 661 4695 l 653 4676 l
 643 4653 l 631 4626 l 618 4596 l 605 4564 l 592 4531 l
 579 4497 l 566 4465 l 556 4434 l 546 4404 l 538 4376 l
 532 4349 l 528 4324 l 526 4299 l 525 4275 l 526 4253 l
 528 4229 l 531 4205 l 536 4178 l 542 4150 l 550 4120 l
 559 4088 l 570 4054 l 581 4019 l 593 3982 l 605 3946 l
 617 3911 l 629 3877 l 640 3846 l 650 3819 l 658 3797 l
 664 3779 l 675 3750 l gs col0 s gr gr

% arrowhead
n 590 3846 m 675 3750 l 675 3878 l 632 3862 l 590 3846 l  cp gs 0.00 setgray ef gr  col0 s
% Polyline
gs  clippath
5806 4676 m 5775 4800 l 5717 4686 l 5732 4820 l 5821 4810 l cp
clip
n 5550 3825 m 5551 3827 l 5553 3831 l 5556 3838 l 5561 3848 l 5568 3863 l
 5576 3881 l 5586 3902 l 5597 3926 l 5609 3951 l 5621 3978 l
 5632 4004 l 5643 4031 l 5654 4057 l 5664 4082 l 5673 4106 l
 5681 4129 l 5688 4153 l 5694 4176 l 5700 4200 l 5705 4221 l
 5709 4243 l 5713 4267 l 5717 4292 l 5722 4320 l 5726 4350 l
 5730 4382 l 5734 4417 l 5738 4453 l 5743 4491 l 5747 4530 l
 5751 4569 l 5755 4607 l 5759 4643 l 5763 4677 l 5766 4708 l
 5768 4734 l 5771 4756 l 5772 4773 l 5775 4800 l gs col0 s gr gr

% arrowhead
n 5806 4676 m 5775 4800 l 5717 4686 l 5762 4681 l 5806 4676 l  cp gs 0.00 setgray ef gr  col0 s
% Polyline
gs  clippath
3045 1680 m 3000 1800 l 2955 1680 l 2955 1815 l 3045 1815 l cp
clip
n 3000 1500 m 3000 1800 l gs col0 s gr gr

% arrowhead
n 3045 1680 m 3000 1800 l 2955 1680 l 3000 1680 l 3045 1680 l  cp gs 0.00 setgray ef gr  col0 s
% Polyline
gs  clippath
3630 1620 m 3675 1500 l 3720 1620 l 3720 1485 l 3630 1485 l cp
clip
n 3675 1800 m 3675 1500 l gs col0 s gr gr

% arrowhead
n 3630 1620 m 3675 1500 l 3720 1620 l 3675 1620 l 3630 1620 l  cp gs 0.00 setgray ef gr  col0 s
% Polyline
gs  clippath
3463 2831 m 3375 2925 l 3379 2797 l 3328 2922 l 3411 2956 l cp
clip
n 3375 2550 m 3377 2553 l 3382 2560 l 3389 2570 l 3399 2584 l 3410 2601 l
 3421 2619 l 3431 2637 l 3439 2654 l 3445 2670 l 3449 2685 l
 3450 2700 l 3449 2714 l 3447 2729 l 3442 2747 l 3436 2767 l
 3428 2790 l 3420 2814 l 3410 2839 l 3400 2863 l 3392 2884 l
 3375 2925 l gs col0 s gr gr

% arrowhead
n 3463 2831 m 3375 2925 l 3379 2797 l 3421 2814 l 3463 2831 l  cp gs 0.00 setgray ef gr  col0 s
% Polyline
gs  clippath
2912 2644 m 3000 2550 l 2996 2678 l 3047 2553 l 2964 2519 l cp
clip
n 3000 2925 m 2998 2922 l 2993 2915 l 2986 2905 l 2976 2891 l 2965 2874 l
 2954 2856 l 2944 2838 l 2936 2821 l 2930 2805 l 2926 2790 l
 2925 2775 l 2926 2761 l 2928 2746 l 2933 2728 l 2939 2708 l
 2947 2685 l 2955 2661 l 2965 2636 l 2975 2612 l 2983 2591 l
 3000 2550 l gs col0 s gr gr

% arrowhead
n 2912 2644 m 3000 2550 l 2996 2678 l 2954 2661 l 2912 2644 l  cp gs 0.00 setgray ef gr  col0 s
/Helvetica ff 270.00 scf sf
3225 1275 m
gs 1 -1 sc (Application) dup sw pop 2 div neg 0 rm  col0 sh gr
/Helvetica ff 270.00 scf sf
3300 2250 m
gs 1 -1 sc (GTK+) dup sw pop 2 div neg 0 rm  col0 sh gr
/Helvetica ff 210.00 scf sf
4200 3450 m
gs 1 -1 sc (X) dup sw pop 2 div neg 0 rm  col0 sh gr
/Helvetica ff 210.00 scf sf
5250 3450 m
gs 1 -1 sc (Postscript) dup sw pop 2 div neg 0 rm  col0 sh gr
/Helvetica ff 210.00 scf sf
4950 3000 m
gs 1 -1 sc (Output Modules) dup sw pop 2 div neg 0 rm  col0 sh gr
/Helvetica ff 210.00 scf sf
4350 4275 m
gs 1 -1 sc (Xlib) dup sw pop 2 div neg 0 rm  col0 sh gr
/Helvetica ff 270.00 scf sf
975 5175 m
gs 1 -1 sc (Input) dup sw pop 2 div neg 0 rm  col0 sh gr
/Helvetica ff 270.00 scf sf
975 5475 m
gs 1 -1 sc (Method) dup sw pop 2 div neg 0 rm  col0 sh gr
/Helvetica ff 270.00 scf sf
5925 5325 m
gs 1 -1 sc (Printer) dup sw pop 2 div neg 0 rm  col0 sh gr
/Helvetica ff 270.00 scf sf
3900 5325 m
gs 1 -1 sc (X Server) dup sw pop 2 div neg 0 rm  col0 sh gr
/Helvetica-Oblique ff 210.00 scf sf
825 2400 m
gs 1 -1 sc (Input) dup sw pop 2 div neg 0 rm  col0 sh gr
/Helvetica-Oblique ff 210.00 scf sf
2325 2850 m
gs 1 -1 sc (Processing) dup sw pop 2 div neg 0 rm  col0 sh gr
/Helvetica-Oblique ff 210.00 scf sf
5325 2175 m
gs 1 -1 sc (Output) dup sw pop 2 div neg 0 rm  col0 sh gr
$F2psEnd
rs
