%!PS-Adobe-2.0 EPSF-2.0
%%Title: oldarch.eps
%%Creator: fig2dev Version 3.2 Patchlevel 1
%%CreationDate: Thu May  6 15:57:16 1999
%%For: otaylor@fresnel.labs.redhat.com (Owen Taylor,,547-0012 x249)
%%Orientation: Portrait
%%BoundingBox: 0 0 358 259
%%Pages: 0
%%BeginSetup
%%EndSetup
%%Magnification: 1.0000
%%EndComments
/$F2psDict 200 dict def
$F2psDict begin
$F2psDict /mtrx matrix put
/col-1 {0 setgray} bind def
/col0 {0.000 0.000 0.000 srgb} bind def
/col1 {0.000 0.000 1.000 srgb} bind def
/col2 {0.000 1.000 0.000 srgb} bind def
/col3 {0.000 1.000 1.000 srgb} bind def
/col4 {1.000 0.000 0.000 srgb} bind def
/col5 {1.000 0.000 1.000 srgb} bind def
/col6 {1.000 1.000 0.000 srgb} bind def
/col7 {1.000 1.000 1.000 srgb} bind def
/col8 {0.000 0.000 0.560 srgb} bind def
/col9 {0.000 0.000 0.690 srgb} bind def
/col10 {0.000 0.000 0.820 srgb} bind def
/col11 {0.530 0.810 1.000 srgb} bind def
/col12 {0.000 0.560 0.000 srgb} bind def
/col13 {0.000 0.690 0.000 srgb} bind def
/col14 {0.000 0.820 0.000 srgb} bind def
/col15 {0.000 0.560 0.560 srgb} bind def
/col16 {0.000 0.690 0.690 srgb} bind def
/col17 {0.000 0.820 0.820 srgb} bind def
/col18 {0.560 0.000 0.000 srgb} bind def
/col19 {0.690 0.000 0.000 srgb} bind def
/col20 {0.820 0.000 0.000 srgb} bind def
/col21 {0.560 0.000 0.560 srgb} bind def
/col22 {0.690 0.000 0.690 srgb} bind def
/col23 {0.820 0.000 0.820 srgb} bind def
/col24 {0.500 0.190 0.000 srgb} bind def
/col25 {0.630 0.250 0.000 srgb} bind def
/col26 {0.750 0.380 0.000 srgb} bind def
/col27 {1.000 0.500 0.500 srgb} bind def
/col28 {1.000 0.630 0.630 srgb} bind def
/col29 {1.000 0.750 0.750 srgb} bind def
/col30 {1.000 0.880 0.880 srgb} bind def
/col31 {1.000 0.840 0.000 srgb} bind def

end
save
-93.0 334.0 translate
1 -1 scale

/cp {closepath} bind def
/ef {eofill} bind def
/gr {grestore} bind def
/gs {gsave} bind def
/sa {save} bind def
/rs {restore} bind def
/l {lineto} bind def
/m {moveto} bind def
/rm {rmoveto} bind def
/n {newpath} bind def
/s {stroke} bind def
/sh {show} bind def
/slc {setlinecap} bind def
/slj {setlinejoin} bind def
/slw {setlinewidth} bind def
/srgb {setrgbcolor} bind def
/rot {rotate} bind def
/sc {scale} bind def
/sd {setdash} bind def
/ff {findfont} bind def
/sf {setfont} bind def
/scf {scalefont} bind def
/sw {stringwidth} bind def
/tr {translate} bind def
/tnt {dup dup currentrgbcolor
  4 -2 roll dup 1 exch sub 3 -1 roll mul add
  4 -2 roll dup 1 exch sub 3 -1 roll mul add
  4 -2 roll dup 1 exch sub 3 -1 roll mul add srgb}
  bind def
/shd {dup dup currentrgbcolor 4 -2 roll mul 4 -2 roll mul
  4 -2 roll mul srgb} bind def
/$F2psBegin {$F2psDict begin /$F2psEnteredState save def} def
/$F2psEnd {$F2psEnteredState restore end} def
%%EndProlog

$F2psBegin
10 setmiterlimit
n -1000 6562 m -1000 -1000 l 8512 -1000 l 8512 6562 l cp clip
 0.06000 0.06000 sc
/Helvetica ff 210.00 scf sf
2400 3375 m
gs 1 -1 sc (X Input Method) dup sw pop 2 div neg 0 rm  col0 sh gr
/Helvetica ff 210.00 scf sf
2400 3630 m
gs 1 -1 sc (Extension) dup sw pop 2 div neg 0 rm  col0 sh gr
/Helvetica ff 210.00 scf sf
3750 3375 m
gs 1 -1 sc (Fontset) dup sw pop 2 div neg 0 rm  col0 sh gr
/Helvetica ff 210.00 scf sf
3750 3630 m
gs 1 -1 sc (Code) dup sw pop 2 div neg 0 rm  col0 sh gr
/Helvetica ff 270.00 scf sf
2250 5025 m
gs 1 -1 sc (Input) dup sw pop 2 div neg 0 rm  col0 sh gr
/Helvetica ff 270.00 scf sf
2250 5355 m
gs 1 -1 sc (Method) dup sw pop 2 div neg 0 rm  col0 sh gr
% Polyline
7.500 slw
 [60] 0 sd
n 3225 3075 m 3225 3825 l gs col0 s gr  [] 0 sd
% Polyline
 [60] 0 sd
n 4275 3075 m 4275 3825 l gs col0 s gr  [] 0 sd
% Polyline
n 1680 3075 m 1575 3075 1575 3720 105 arcto 4 {pop} repeat
  1575 3825 4995 3825 105 arcto 4 {pop} repeat
  5100 3825 5100 3180 105 arcto 4 {pop} repeat
  5100 3075 1680 3075 105 arcto 4 {pop} repeat
 cp gs col0 s gr 
% Polyline
n 6030 2700 m 5925 2700 5925 3195 105 arcto 4 {pop} repeat
  5925 3300 7395 3300 105 arcto 4 {pop} repeat
  7500 3300 7500 2805 105 arcto 4 {pop} repeat
  7500 2700 6030 2700 105 arcto 4 {pop} repeat
 cp gs col0 s gr 
% Polyline
n 3255 1275 m 3150 1275 3150 1770 105 arcto 4 {pop} repeat
  3150 1875 5070 1875 105 arcto 4 {pop} repeat
  5175 1875 5175 1380 105 arcto 4 {pop} repeat
  5175 1275 3255 1275 105 arcto 4 {pop} repeat
 cp gs col0 s gr 
% Polyline
n 3255 2100 m 3150 2100 3150 2595 105 arcto 4 {pop} repeat
  3150 2700 5070 2700 105 arcto 4 {pop} repeat
  5175 2700 5175 2205 105 arcto 4 {pop} repeat
  5175 2100 3255 2100 105 arcto 4 {pop} repeat
 cp gs col0 s gr 
% Polyline
gs  clippath
3705 1995 m 3750 1875 l 3795 1995 l 3795 1860 l 3705 1860 l cp
clip
n 3750 2100 m 3750 1875 l gs col0 s gr gr

% arrowhead
n 3705 1995 m 3750 1875 l 3795 1995 l 3750 1995 l 3705 1995 l  cp gs 0.00 setgray ef gr  col0 s
% Polyline
gs  clippath
4695 1980 m 4650 2100 l 4605 1980 l 4605 2115 l 4695 2115 l cp
clip
n 4650 1875 m 4650 2100 l gs col0 s gr gr

% arrowhead
n 4695 1980 m 4650 2100 l 4605 1980 l 4650 1980 l 4695 1980 l  cp gs 0.00 setgray ef gr  col0 s
% Polyline
n 1680 4650 m 1575 4650 1575 5445 105 arcto 4 {pop} repeat
  1575 5550 2745 5550 105 arcto 4 {pop} repeat
  2850 5550 2850 4755 105 arcto 4 {pop} repeat
  2850 4650 1680 4650 105 arcto 4 {pop} repeat
 cp gs col0 s gr 
% Polyline
n 3255 4650 m 3150 4650 3150 5445 105 arcto 4 {pop} repeat
  3150 5550 4545 5550 105 arcto 4 {pop} repeat
  4650 5550 4650 4755 105 arcto 4 {pop} repeat
  4650 4650 3255 4650 105 arcto 4 {pop} repeat
 cp gs col0 s gr 
% Polyline
gs  clippath
2797 2315 m 2925 2325 l 2822 2401 l 2952 2364 l 2927 2278 l cp
clip
n 2100 2925 m 2101 2923 l 2103 2918 l 2106 2910 l 2111 2897 l 2119 2881 l
 2128 2860 l 2138 2835 l 2151 2809 l 2164 2780 l 2178 2751 l
 2192 2722 l 2207 2694 l 2222 2668 l 2238 2643 l 2254 2621 l
 2270 2601 l 2287 2582 l 2305 2565 l 2325 2550 l 2343 2538 l
 2363 2526 l 2384 2514 l 2409 2502 l 2436 2490 l 2465 2478 l
 2497 2465 l 2532 2453 l 2569 2440 l 2607 2426 l 2646 2413 l
 2686 2400 l 2725 2387 l 2763 2375 l 2798 2364 l 2830 2354 l
 2857 2346 l 2879 2339 l 2897 2333 l 2925 2325 l gs col0 s gr gr

% arrowhead
n 2797 2315 m 2925 2325 l 2822 2401 l 2810 2358 l 2797 2315 l  cp gs 0.00 setgray ef gr  col0 s
% Polyline
gs  clippath
3870 2880 m 3825 3000 l 3780 2880 l 3780 3015 l 3870 3015 l cp
clip
n 3825 2775 m 3825 3000 l gs col0 s gr gr

% arrowhead
n 3870 2880 m 3825 3000 l 3780 2880 l 3825 2880 l 3870 2880 l  cp gs 0.00 setgray ef gr  col0 s
% Polyline
gs  clippath
6308 2441 m 6375 2550 l 6253 2511 l 6359 2595 l 6415 2524 l cp
clip
n 5325 2175 m 5327 2175 l 5331 2175 l 5339 2176 l 5351 2177 l 5368 2178 l
 5390 2179 l 5416 2181 l 5446 2183 l 5479 2186 l 5515 2188 l
 5552 2191 l 5591 2195 l 5629 2198 l 5667 2202 l 5703 2206 l
 5737 2210 l 5770 2214 l 5800 2219 l 5829 2224 l 5855 2230 l
 5880 2236 l 5903 2243 l 5925 2250 l 5949 2259 l 5972 2269 l
 5996 2281 l 6020 2294 l 6046 2309 l 6072 2326 l 6100 2344 l
 6129 2364 l 6158 2385 l 6188 2407 l 6218 2429 l 6246 2450 l
 6273 2471 l 6298 2490 l 6320 2507 l 6338 2521 l 6352 2532 l
 6375 2550 l gs col0 s gr gr

% arrowhead
n 6308 2441 m 6375 2550 l 6253 2511 l 6280 2476 l 6308 2441 l  cp gs 0.00 setgray ef gr  col0 s
% Polyline
gs  clippath
5313 2812 m 5250 2700 l 5371 2743 l 5267 2656 l 5210 2725 l cp
clip
n 5850 2850 m 5847 2850 l 5841 2851 l 5830 2851 l 5814 2852 l 5792 2853 l
 5766 2855 l 5737 2856 l 5705 2858 l 5673 2859 l 5641 2860 l
 5610 2860 l 5582 2860 l 5556 2860 l 5532 2858 l 5511 2857 l
 5492 2854 l 5475 2850 l 5457 2845 l 5439 2838 l 5421 2829 l
 5403 2819 l 5384 2807 l 5365 2793 l 5345 2778 l 5325 2763 l
 5306 2747 l 5289 2733 l 5275 2721 l 5250 2700 l gs col0 s gr gr

% arrowhead
n 5313 2812 m 5250 2700 l 5371 2743 l 5342 2777 l 5313 2812 l  cp gs 0.00 setgray ef gr  col0 s
% Polyline
gs  clippath
1922 3976 m 2025 3900 l 1997 4025 l 2071 3912 l 1996 3863 l cp
clip
n 1950 4575 m 1949 4572 l 1947 4566 l 1944 4556 l 1940 4540 l 1934 4519 l
 1927 4493 l 1919 4465 l 1911 4434 l 1903 4402 l 1896 4370 l
 1889 4340 l 1883 4312 l 1878 4285 l 1875 4261 l 1874 4239 l
 1874 4219 l 1875 4200 l 1878 4181 l 1882 4163 l 1888 4143 l
 1897 4123 l 1906 4101 l 1918 4079 l 1931 4055 l 1944 4031 l
 1959 4006 l 1973 3983 l 1986 3961 l 1998 3942 l 2008 3926 l
 2025 3900 l gs col0 s gr gr

% arrowhead
n 1922 3976 m 2025 3900 l 1997 4025 l 1959 4000 l 1922 3976 l  cp gs 0.00 setgray ef gr  col0 s
% Polyline
gs  clippath
3795 4455 m 3750 4575 l 3705 4455 l 3705 4590 l 3795 4590 l cp
clip
n 3750 3900 m 3750 4575 l gs col0 s gr gr

% arrowhead
n 3795 4455 m 3750 4575 l 3705 4455 l 3750 4455 l 3795 4455 l  cp gs 0.00 setgray ef gr  col0 s
% Polyline
gs  clippath
2653 4499 m 2550 4575 l 2578 4450 l 2504 4563 l 2579 4612 l cp
clip
n 2625 3900 m 2626 3903 l 2628 3909 l 2631 3919 l 2635 3935 l 2641 3956 l
 2648 3982 l 2656 4010 l 2664 4041 l 2672 4073 l 2679 4105 l
 2686 4135 l 2692 4163 l 2697 4190 l 2700 4214 l 2701 4236 l
 2701 4256 l 2700 4275 l 2697 4294 l 2693 4312 l 2687 4332 l
 2678 4352 l 2669 4374 l 2657 4396 l 2644 4420 l 2631 4444 l
 2616 4469 l 2602 4492 l 2589 4514 l 2577 4533 l 2567 4549 l
 2550 4575 l gs col0 s gr gr

% arrowhead
n 2653 4499 m 2550 4575 l 2578 4450 l 2616 4475 l 2653 4499 l  cp gs 0.00 setgray ef gr  col0 s
/Helvetica ff 270.00 scf sf
4200 1650 m
gs 1 -1 sc (Application) dup sw pop 2 div neg 0 rm  col0 sh gr
/Helvetica ff 270.00 scf sf
4725 3450 m
gs 1 -1 sc (Xlib) dup sw pop 2 div neg 0 rm  col0 sh gr
/Helvetica ff 270.00 scf sf
6750 3075 m
gs 1 -1 sc (C Library) dup sw pop 2 div neg 0 rm  col0 sh gr
/Helvetica ff 270.00 scf sf
3900 5175 m
gs 1 -1 sc (X Server) dup sw pop 2 div neg 0 rm  col0 sh gr
/Helvetica ff 270.00 scf sf
4200 2475 m
gs 1 -1 sc (GTK+) dup sw pop 2 div neg 0 rm  col0 sh gr
/Helvetica-Oblique ff 210.00 scf sf
6225 2100 m
gs 1 -1 sc (Processing) dup sw pop 2 div neg 0 rm  col0 sh gr
/Helvetica-Oblique ff 210.00 scf sf
4425 3000 m
gs 1 -1 sc (Output) dup sw pop 2 div neg 0 rm  col0 sh gr
/Helvetica-Oblique ff 210.00 scf sf
1950 2550 m
gs 1 -1 sc (Input) dup sw pop 2 div neg 0 rm  col0 sh gr
$F2psEnd
rs
