%!PS-Adobe-2.0 EPSF-2.0
%%Title: dnd-arch.eps
%%Creator: fig2dev Version 3.2 Patchlevel 1
%%CreationDate: Wed May  5 14:51:34 1999
%%For: otaylor@fresnel.labs.redhat.com (Owen Taylor,,547-0012 x249)
%%Orientation: Portrait
%%BoundingBox: 0 0 324 254
%%Pages: 0
%%BeginSetup
%%EndSetup
%%Magnification: 0.8500
%%EndComments
/$F2psDict 200 dict def
$F2psDict begin
$F2psDict /mtrx matrix put
/col-1 {0 setgray} bind def
/col0 {0.000 0.000 0.000 srgb} bind def
/col1 {0.000 0.000 1.000 srgb} bind def
/col2 {0.000 1.000 0.000 srgb} bind def
/col3 {0.000 1.000 1.000 srgb} bind def
/col4 {1.000 0.000 0.000 srgb} bind def
/col5 {1.000 0.000 1.000 srgb} bind def
/col6 {1.000 1.000 0.000 srgb} bind def
/col7 {1.000 1.000 1.000 srgb} bind def
/col8 {0.000 0.000 0.560 srgb} bind def
/col9 {0.000 0.000 0.690 srgb} bind def
/col10 {0.000 0.000 0.820 srgb} bind def
/col11 {0.530 0.810 1.000 srgb} bind def
/col12 {0.000 0.560 0.000 srgb} bind def
/col13 {0.000 0.690 0.000 srgb} bind def
/col14 {0.000 0.820 0.000 srgb} bind def
/col15 {0.000 0.560 0.560 srgb} bind def
/col16 {0.000 0.690 0.690 srgb} bind def
/col17 {0.000 0.820 0.820 srgb} bind def
/col18 {0.560 0.000 0.000 srgb} bind def
/col19 {0.690 0.000 0.000 srgb} bind def
/col20 {0.820 0.000 0.000 srgb} bind def
/col21 {0.560 0.000 0.560 srgb} bind def
/col22 {0.690 0.000 0.690 srgb} bind def
/col23 {0.820 0.000 0.820 srgb} bind def
/col24 {0.500 0.190 0.000 srgb} bind def
/col25 {0.630 0.250 0.000 srgb} bind def
/col26 {0.750 0.380 0.000 srgb} bind def
/col27 {1.000 0.500 0.500 srgb} bind def
/col28 {1.000 0.630 0.630 srgb} bind def
/col29 {1.000 0.750 0.750 srgb} bind def
/col30 {1.000 0.880 0.880 srgb} bind def
/col31 {1.000 0.840 0.000 srgb} bind def

end
save
-37.0 303.0 translate
1 -1 scale

/cp {closepath} bind def
/ef {eofill} bind def
/gr {grestore} bind def
/gs {gsave} bind def
/sa {save} bind def
/rs {restore} bind def
/l {lineto} bind def
/m {moveto} bind def
/rm {rmoveto} bind def
/n {newpath} bind def
/s {stroke} bind def
/sh {show} bind def
/slc {setlinecap} bind def
/slj {setlinejoin} bind def
/slw {setlinewidth} bind def
/srgb {setrgbcolor} bind def
/rot {rotate} bind def
/sc {scale} bind def
/sd {setdash} bind def
/ff {findfont} bind def
/sf {setfont} bind def
/scf {scalefont} bind def
/sw {stringwidth} bind def
/tr {translate} bind def
/tnt {dup dup currentrgbcolor
  4 -2 roll dup 1 exch sub 3 -1 roll mul add
  4 -2 roll dup 1 exch sub 3 -1 roll mul add
  4 -2 roll dup 1 exch sub 3 -1 roll mul add srgb}
  bind def
/shd {dup dup currentrgbcolor 4 -2 roll mul 4 -2 roll mul
  4 -2 roll mul srgb} bind def
/$F2psBegin {$F2psDict begin /$F2psEnteredState save def} def
/$F2psEnd {$F2psEnteredState restore end} def
%%EndProlog

$F2psBegin
10 setmiterlimit
n -1000 6937 m -1000 -1000 l 8061 -1000 l 8061 6937 l cp clip
 0.05100 0.05100 sc
% Polyline
7.500 slw
n 855 5175 m 750 5175 750 5820 105 arcto 4 {pop} repeat
  750 5925 2445 5925 105 arcto 4 {pop} repeat
  2550 5925 2550 5280 105 arcto 4 {pop} repeat
  2550 5175 855 5175 105 arcto 4 {pop} repeat
 cp gs col0 s gr 
/Helvetica ff 240.00 scf sf
1650 5625 m
gs 1 -1 sc ( ) dup sw pop 2 div neg 0 rm  col0 sh gr
/Helvetica ff 240.00 scf sf
1650 5476 m
gs 1 -1 sc (Motif) dup sw pop 2 div neg 0 rm  col0 sh gr
/Helvetica ff 240.00 scf sf
1650 5760 m
gs 1 -1 sc (Application) dup sw pop 2 div neg 0 rm  col0 sh gr
% Polyline
n 3105 5175 m 3000 5175 3000 5820 105 arcto 4 {pop} repeat
  3000 5925 4695 5925 105 arcto 4 {pop} repeat
  4800 5925 4800 5280 105 arcto 4 {pop} repeat
  4800 5175 3105 5175 105 arcto 4 {pop} repeat
 cp gs col0 s gr 
/Helvetica ff 240.00 scf sf
3824 5476 m
gs 1 -1 sc (GTK+) dup sw pop 2 div neg 0 rm  col0 sh gr
/Helvetica ff 240.00 scf sf
3824 5760 m
gs 1 -1 sc (Application) dup sw pop 2 div neg 0 rm  col0 sh gr
% Polyline
n 5354 5175 m 5249 5175 5249 5820 105 arcto 4 {pop} repeat
  5249 5925 6944 5925 105 arcto 4 {pop} repeat
  7049 5925 7049 5280 105 arcto 4 {pop} repeat
  7049 5175 5354 5175 105 arcto 4 {pop} repeat
 cp gs col0 s gr 
/Helvetica ff 240.00 scf sf
6149 5476 m
gs 1 -1 sc (Qt) dup sw pop 2 div neg 0 rm  col0 sh gr
/Helvetica ff 240.00 scf sf
6149 5760 m
gs 1 -1 sc (Application) dup sw pop 2 div neg 0 rm  col0 sh gr
% Polyline
n 3255 975 m 3150 975 3150 1620 105 arcto 4 {pop} repeat
  3150 1725 5069 1725 105 arcto 4 {pop} repeat
  5174 1725 5174 1080 105 arcto 4 {pop} repeat
  5174 975 3255 975 105 arcto 4 {pop} repeat
 cp gs col0 s gr 
/Helvetica ff 240.00 scf sf
4125 1424 m
gs 1 -1 sc (Application) dup sw pop 2 div neg 0 rm  col0 sh gr
% Polyline
n 4155 3600 m 4050 3600 4050 4095 105 arcto 4 {pop} repeat
  4050 4200 5595 4200 105 arcto 4 {pop} repeat
  5700 4200 5700 3705 105 arcto 4 {pop} repeat
  5700 3600 4155 3600 105 arcto 4 {pop} repeat
 cp gs col0 s gr 
% Polyline
 [60] 0 sd
n 2099 2025 m 5850 2025 l 5850 4350 l 2099 4350 l cp gs col0 s gr  [] 0 sd
% Polyline
n 2355 3600 m 2250 3600 2250 4095 105 arcto 4 {pop} repeat
  2250 4200 3795 4200 105 arcto 4 {pop} repeat
  3900 4200 3900 3705 105 arcto 4 {pop} repeat
  3900 3600 2355 3600 105 arcto 4 {pop} repeat
 cp gs col0 s gr 
% Polyline
n 2355 2850 m 2250 2850 2250 3270 105 arcto 4 {pop} repeat
  2250 3375 5595 3375 105 arcto 4 {pop} repeat
  5700 3375 5700 2955 105 arcto 4 {pop} repeat
  5700 2850 2355 2850 105 arcto 4 {pop} repeat
 cp gs col0 s gr 
% Polyline
n 2355 2176 m 2250 2176 2250 2520 105 arcto 4 {pop} repeat
  2250 2625 4095 2625 105 arcto 4 {pop} repeat
  4200 2625 4200 2281 105 arcto 4 {pop} repeat
  4200 2176 2355 2176 105 arcto 4 {pop} repeat
 cp gs col0 s gr 
% Polyline
gs  clippath
1753 5023 m 1650 5100 l 1677 4975 l 1604 5088 l 1680 5137 l cp
2573 4295 m 2700 4275 l 2618 4373 l 2735 4307 l 2691 4228 l cp
clip
n 2700 4275 m 2677 4288 l 2663 4296 l 2643 4307 l 2619 4320 l 2591 4336 l
 2559 4354 l 2523 4374 l 2485 4396 l 2444 4419 l 2402 4443 l
 2359 4468 l 2317 4492 l 2275 4516 l 2235 4540 l 2196 4563 l
 2160 4584 l 2125 4605 l 2094 4625 l 2064 4644 l 2037 4661 l
 2012 4678 l 1989 4694 l 1968 4709 l 1949 4724 l 1924 4745 l
 1900 4765 l 1878 4787 l 1857 4809 l 1836 4832 l 1816 4857 l
 1796 4883 l 1776 4911 l 1756 4938 l 1737 4966 l 1719 4993 l
 1703 5018 l 1688 5040 l 1676 5059 l 1666 5075 l 1650 5100 l gs col0 s gr gr

% arrowhead
n 2573 4295 m 2700 4275 l 2618 4373 l 2596 4334 l 2573 4295 l  cp gs 0.00 setgray ef gr  col0 s
% arrowhead
n 1753 5023 m 1650 5100 l 1677 4975 l 1715 4999 l 1753 5023 l  cp gs 0.00 setgray ef gr  col0 s
% Polyline
gs  clippath
3835 5005 m 3749 5100 l 3752 4972 l 3702 5097 l 3785 5131 l cp
4301 4311 m 4424 4275 l 4355 4383 l 4463 4302 l 4409 4230 l cp
clip
n 4424 4275 m 4404 4290 l 4391 4300 l 4374 4313 l 4354 4328 l 4331 4346 l
 4305 4365 l 4277 4387 l 4248 4409 l 4219 4432 l 4190 4455 l
 4161 4478 l 4134 4500 l 4108 4522 l 4084 4543 l 4061 4562 l
 4041 4581 l 4022 4599 l 4005 4617 l 3990 4634 l 3975 4651 l
 3960 4670 l 3946 4690 l 3932 4711 l 3918 4733 l 3905 4757 l
 3891 4783 l 3877 4810 l 3863 4839 l 3849 4870 l 3835 4901 l
 3821 4932 l 3807 4962 l 3795 4991 l 3784 5017 l 3774 5040 l
 3766 5060 l 3759 5075 l 3749 5100 l gs col0 s gr gr

% arrowhead
n 4301 4311 m 4424 4275 l 4355 4383 l 4328 4347 l 4301 4311 l  cp gs 0.00 setgray ef gr  col0 s
% arrowhead
n 3835 5005 m 3749 5100 l 3752 4972 l 3794 4989 l 3835 5005 l  cp gs 0.00 setgray ef gr  col0 s
% Polyline
gs  clippath
6211 4973 m 6224 5100 l 6130 5013 l 6190 5134 l 6271 5093 l cp
5557 4373 m 5474 4275 l 5601 4294 l 5483 4228 l 5439 4307 l cp
clip
n 5474 4275 m 5499 4289 l 5515 4298 l 5535 4309 l 5559 4323 l 5586 4338 l
 5616 4356 l 5647 4374 l 5678 4393 l 5710 4412 l 5740 4431 l
 5770 4450 l 5797 4468 l 5823 4486 l 5846 4504 l 5868 4521 l
 5888 4539 l 5907 4557 l 5924 4575 l 5939 4593 l 5955 4611 l
 5970 4632 l 5985 4654 l 6001 4678 l 6017 4704 l 6033 4733 l
 6050 4763 l 6068 4795 l 6086 4828 l 6104 4862 l 6121 4896 l
 6139 4930 l 6155 4962 l 6170 4992 l 6184 5019 l 6195 5042 l
 6205 5061 l 6212 5076 l 6224 5100 l gs col0 s gr gr

% arrowhead
n 5557 4373 m 5474 4275 l 5601 4294 l 5579 4334 l 5557 4373 l  cp gs 0.00 setgray ef gr  col0 s
% arrowhead
n 6211 4973 m 6224 5100 l 6130 5013 l 6170 4993 l 6211 4973 l  cp gs 0.00 setgray ef gr  col0 s
% Polyline
gs  clippath
4980 2575 m 4950 2700 l 4890 2587 l 4907 2720 l 4997 2709 l cp
4598 1926 m 4574 1800 l 4675 1879 l 4605 1764 l 4528 1811 l cp
clip
n 4574 1800 m 4588 1823 l 4597 1838 l 4609 1857 l 4623 1880 l 4639 1906 l
 4657 1935 l 4676 1967 l 4696 2000 l 4716 2034 l 4736 2067 l
 4755 2100 l 4774 2132 l 4791 2162 l 4807 2191 l 4822 2217 l
 4835 2242 l 4847 2265 l 4857 2286 l 4867 2306 l 4875 2325 l
 4885 2350 l 4893 2374 l 4901 2399 l 4908 2425 l 4914 2452 l
 4919 2480 l 4925 2510 l 4929 2540 l 4934 2570 l 4938 2599 l
 4941 2625 l 4944 2649 l 4946 2668 l 4950 2700 l gs col0 s gr gr

% arrowhead
n 4598 1926 m 4574 1800 l 4675 1879 l 4636 1902 l 4598 1926 l  cp gs 0.00 setgray ef gr  col0 s
% arrowhead
n 4980 2575 m 4950 2700 l 4890 2587 l 4935 2581 l 4980 2575 l  cp gs 0.00 setgray ef gr  col0 s
% Polyline
gs  clippath
3389 2008 m 3300 2100 l 3306 1972 l 3253 2096 l 3335 2132 l cp
3405 1849 m 3524 1800 l 3467 1915 l 3566 1823 l 3504 1757 l cp
clip
n 3524 1800 m 3496 1826 l 3482 1840 l 3466 1855 l 3449 1871 l 3433 1887 l
 3418 1902 l 3405 1915 l 3393 1928 l 3383 1939 l 3375 1950 l
 3366 1963 l 3358 1976 l 3349 1991 l 3341 2008 l 3332 2026 l
 3324 2045 l 3316 2063 l 3300 2100 l gs col0 s gr gr

% arrowhead
n 3405 1849 m 3524 1800 l 3467 1915 l 3436 1882 l 3405 1849 l  cp gs 0.00 setgray ef gr  col0 s
% arrowhead
n 3389 2008 m 3300 2100 l 3306 1972 l 3348 1990 l 3389 2008 l  cp gs 0.00 setgray ef gr  col0 s
/Helvetica ff 240.00 scf sf
4800 3826 m
gs 1 -1 sc (Xdnd) dup sw pop 2 div neg 0 rm  col0 sh gr
/Helvetica ff 240.00 scf sf
4800 4110 m
gs 1 -1 sc (Subsystem) dup sw pop 2 div neg 0 rm  col0 sh gr
/Helvetica ff 240.00 scf sf
3000 3826 m
gs 1 -1 sc (Motif) dup sw pop 2 div neg 0 rm  col0 sh gr
/Helvetica ff 240.00 scf sf
3000 4125 m
gs 1 -1 sc (Subsystem) dup sw pop 2 div neg 0 rm  col0 sh gr
/Helvetica ff 240.00 scf sf
2475 4724 m
gs 1 -1 sc (Motif) dup sw pop 2 div neg 0 rm  col0 sh gr
/Helvetica ff 240.00 scf sf
2475 4950 m
gs 1 -1 sc (Protocol) dup sw pop 2 div neg 0 rm  col0 sh gr
/Helvetica ff 240.00 scf sf
4950 4651 m
gs 1 -1 sc (Xdnd) dup sw pop 2 div neg 0 rm  col0 sh gr
/Helvetica ff 240.00 scf sf
4875 4950 m
gs 1 -1 sc (Protocol) dup sw pop 2 div neg 0 rm  col0 sh gr
/Helvetica ff 270.00 scf sf
5399 2400 m
gs 1 -1 sc (GTK+) dup sw pop 2 div neg 0 rm  col0 sh gr
/Helvetica ff 240.00 scf sf
3900 3225 m
gs 1 -1 sc (Full DND API) dup sw pop 2 div neg 0 rm  col0 sh gr
/Helvetica ff 240.00 scf sf
3225 2475 m
gs 1 -1 sc (Default Handlers) dup sw pop 2 div neg 0 rm  col0 sh gr
$F2psEnd
rs
