%!PS-Adobe-2.0 EPSF-2.0
%%Title: example.eps
%%Creator: fig2dev Version 3.2 Patchlevel 1
%%CreationDate: Mon May 10 10:53:46 1999
%%For: otaylor@fresnel.labs.redhat.com (Owen Taylor,,547-0012 x249)
%%Orientation: Portrait
%%BoundingBox: 0 0 364 123
%%Pages: 0
%%BeginSetup
%%EndSetup
%%Magnification: 0.8300
%%EndComments
/$F2psDict 200 dict def
$F2psDict begin
$F2psDict /mtrx matrix put
/col-1 {0 setgray} bind def
/col0 {0.000 0.000 0.000 srgb} bind def
/col1 {0.000 0.000 1.000 srgb} bind def
/col2 {0.000 1.000 0.000 srgb} bind def
/col3 {0.000 1.000 1.000 srgb} bind def
/col4 {1.000 0.000 0.000 srgb} bind def
/col5 {1.000 0.000 1.000 srgb} bind def
/col6 {1.000 1.000 0.000 srgb} bind def
/col7 {1.000 1.000 1.000 srgb} bind def
/col8 {0.000 0.000 0.560 srgb} bind def
/col9 {0.000 0.000 0.690 srgb} bind def
/col10 {0.000 0.000 0.820 srgb} bind def
/col11 {0.530 0.810 1.000 srgb} bind def
/col12 {0.000 0.560 0.000 srgb} bind def
/col13 {0.000 0.690 0.000 srgb} bind def
/col14 {0.000 0.820 0.000 srgb} bind def
/col15 {0.000 0.560 0.560 srgb} bind def
/col16 {0.000 0.690 0.690 srgb} bind def
/col17 {0.000 0.820 0.820 srgb} bind def
/col18 {0.560 0.000 0.000 srgb} bind def
/col19 {0.690 0.000 0.000 srgb} bind def
/col20 {0.820 0.000 0.000 srgb} bind def
/col21 {0.560 0.000 0.560 srgb} bind def
/col22 {0.690 0.000 0.690 srgb} bind def
/col23 {0.820 0.000 0.820 srgb} bind def
/col24 {0.500 0.190 0.000 srgb} bind def
/col25 {0.630 0.250 0.000 srgb} bind def
/col26 {0.750 0.380 0.000 srgb} bind def
/col27 {1.000 0.500 0.500 srgb} bind def
/col28 {1.000 0.630 0.630 srgb} bind def
/col29 {1.000 0.750 0.750 srgb} bind def
/col30 {1.000 0.880 0.880 srgb} bind def
/col31 {1.000 0.840 0.000 srgb} bind def

end
save
-55.0 144.0 translate
1 -1 scale

/cp {closepath} bind def
/ef {eofill} bind def
/gr {grestore} bind def
/gs {gsave} bind def
/sa {save} bind def
/rs {restore} bind def
/l {lineto} bind def
/m {moveto} bind def
/rm {rmoveto} bind def
/n {newpath} bind def
/s {stroke} bind def
/sh {show} bind def
/slc {setlinecap} bind def
/slj {setlinejoin} bind def
/slw {setlinewidth} bind def
/srgb {setrgbcolor} bind def
/rot {rotate} bind def
/sc {scale} bind def
/sd {setdash} bind def
/ff {findfont} bind def
/sf {setfont} bind def
/scf {scalefont} bind def
/sw {stringwidth} bind def
/tr {translate} bind def
/tnt {dup dup currentrgbcolor
  4 -2 roll dup 1 exch sub 3 -1 roll mul add
  4 -2 roll dup 1 exch sub 3 -1 roll mul add
  4 -2 roll dup 1 exch sub 3 -1 roll mul add srgb}
  bind def
/shd {dup dup currentrgbcolor 4 -2 roll mul 4 -2 roll mul
  4 -2 roll mul srgb} bind def
/$F2psBegin {$F2psDict begin /$F2psEnteredState save def} def
/$F2psEnd {$F2psEnteredState restore end} def
%%EndProlog

$F2psBegin
10 setmiterlimit
n -1000 3872 m -1000 -1000 l 9412 -1000 l 9412 3872 l cp clip
 0.04980 0.04980 sc
% Polyline
30.000 slw
n 3600 1200 m 3300 1200 l 3300 1500 l gs col0 s gr 
% Polyline
7.500 slw
gs  clippath
3482 1424 m 3401 1301 l 3524 1382 l 3386 1243 l 3343 1286 l cp
clip
n 3525 1425 m 3375 1275 l gs col0 s gr gr

% arrowhead
15.000 slw
n 3482 1424 m 3401 1301 l 3524 1382 l 3486 1386 l 3482 1424 l  cp gs 0.00 setgray ef gr  col0 s
% Polyline
n 3675 1275 m 3677 1277 l 3681 1282 l 3689 1290 l 3699 1301 l 3712 1315 l
 3726 1330 l 3742 1346 l 3757 1362 l 3772 1377 l 3786 1390 l
 3799 1403 l 3812 1414 l 3825 1425 l 3837 1434 l 3850 1444 l
 3865 1455 l 3882 1466 l 3900 1479 l 3921 1492 l 3942 1506 l
 3964 1520 l 3985 1534 l 4004 1546 l 4021 1556 l 4034 1565 l
 4043 1570 l 4048 1573 l 4050 1575 l gs col0 s gr 
% Polyline
n 3675 1275 m 3673 1278 l 3670 1283 l 3664 1292 l 3655 1306 l 3644 1323 l
 3631 1343 l 3616 1365 l 3602 1387 l 3587 1409 l 3574 1430 l
 3561 1448 l 3550 1464 l 3541 1478 l 3532 1490 l 3525 1500 l
 3514 1514 l 3504 1525 l 3494 1536 l 3484 1546 l 3474 1555 l
 3464 1563 l 3457 1569 l 3452 1573 l 3450 1575 l gs col0 s gr 
% Polyline
n 3450 1575 m 3450 1800 l gs col0 s gr 
% Polyline
n 3450 1800 m 3525 1650 l gs col0 s gr 
% Polyline
n 3525 1650 m 3450 1575 l gs col0 s gr 
% Polyline
n 3450 1800 m 3452 1802 l 3457 1807 l 3465 1816 l 3476 1828 l 3490 1842 l
 3505 1859 l 3521 1876 l 3537 1892 l 3552 1907 l 3565 1920 l
 3578 1932 l 3589 1941 l 3600 1950 l 3613 1959 l 3626 1967 l
 3641 1976 l 3658 1984 l 3676 1993 l 3695 2001 l 3713 2009 l
 3728 2016 l 3740 2021 l 3747 2024 l 3750 2025 l gs col0 s gr 
% Polyline
n 4050 1575 m 4048 1577 l 4045 1582 l 4040 1591 l 4031 1603 l 4021 1619 l
 4009 1637 l 3995 1658 l 3981 1679 l 3967 1699 l 3954 1719 l
 3941 1738 l 3930 1755 l 3919 1771 l 3909 1786 l 3900 1800 l
 3891 1814 l 3881 1829 l 3870 1845 l 3859 1862 l 3846 1881 l
 3833 1901 l 3819 1921 l 3805 1943 l 3791 1963 l 3779 1981 l
 3769 1997 l 3760 2009 l 3755 2018 l 3752 2023 l 3750 2025 l gs col0 s gr 
% Polyline
30.000 slw
n 7875 1200 m 7575 1200 l 7575 1500 l gs col0 s gr 
% Polyline
7.500 slw
gs  clippath
7757 1424 m 7676 1301 l 7799 1382 l 7661 1243 l 7618 1286 l cp
clip
n 7800 1425 m 7650 1275 l gs col0 s gr gr

% arrowhead
15.000 slw
n 7757 1424 m 7676 1301 l 7799 1382 l 7761 1386 l 7757 1424 l  cp gs 0.00 setgray ef gr  col0 s
% Polyline
n 7950 1275 m 7952 1277 l 7956 1282 l 7964 1290 l 7974 1301 l 7987 1315 l
 8001 1330 l 8017 1346 l 8032 1362 l 8047 1377 l 8061 1390 l
 8074 1403 l 8087 1414 l 8100 1425 l 8112 1434 l 8125 1444 l
 8140 1455 l 8157 1466 l 8175 1479 l 8196 1492 l 8217 1506 l
 8239 1520 l 8260 1534 l 8279 1546 l 8296 1556 l 8309 1565 l
 8318 1570 l 8323 1573 l 8325 1575 l gs col0 s gr 
% Polyline
n 7950 1275 m 7948 1278 l 7945 1283 l 7939 1292 l 7930 1306 l 7919 1323 l
 7906 1343 l 7891 1365 l 7877 1387 l 7862 1409 l 7849 1430 l
 7836 1448 l 7825 1464 l 7816 1478 l 7807 1490 l 7800 1500 l
 7789 1514 l 7779 1525 l 7769 1536 l 7759 1546 l 7749 1555 l
 7739 1563 l 7732 1569 l 7727 1573 l 7725 1575 l gs col0 s gr 
% Polyline
n 7725 1575 m 7725 1800 l gs col0 s gr 
% Polyline
n 7725 1800 m 7800 1650 l gs col0 s gr 
% Polyline
n 7800 1650 m 7725 1575 l gs col0 s gr 
% Polyline
n 7725 1800 m 7727 1802 l 7732 1807 l 7740 1816 l 7751 1828 l 7765 1842 l
 7780 1859 l 7796 1876 l 7812 1892 l 7827 1907 l 7840 1920 l
 7853 1932 l 7864 1941 l 7875 1950 l 7888 1959 l 7901 1967 l
 7916 1976 l 7933 1984 l 7951 1993 l 7970 2001 l 7988 2009 l
 8003 2016 l 8015 2021 l 8022 2024 l 8025 2025 l gs col0 s gr 
% Polyline
n 8325 1575 m 8323 1577 l 8320 1582 l 8315 1591 l 8306 1603 l 8296 1619 l
 8284 1637 l 8270 1658 l 8256 1679 l 8242 1699 l 8229 1719 l
 8216 1738 l 8205 1755 l 8194 1771 l 8184 1786 l 8175 1800 l
 8166 1814 l 8156 1829 l 8145 1845 l 8134 1862 l 8121 1881 l
 8108 1901 l 8094 1921 l 8080 1943 l 8066 1963 l 8054 1981 l
 8044 1997 l 8035 2009 l 8030 2018 l 8027 2023 l 8025 2025 l gs col0 s gr 
% Polyline
n 5625 2100 m 5627 2102 l 5631 2107 l 5639 2115 l 5649 2126 l 5662 2140 l
 5676 2155 l 5692 2171 l 5707 2187 l 5722 2202 l 5736 2215 l
 5749 2228 l 5762 2239 l 5775 2250 l 5787 2259 l 5800 2269 l
 5815 2280 l 5832 2291 l 5850 2304 l 5871 2317 l 5892 2331 l
 5914 2345 l 5935 2359 l 5954 2371 l 5971 2381 l 5984 2390 l
 5993 2395 l 5998 2398 l 6000 2400 l gs col0 s gr 
% Polyline
n 5625 2100 m 5623 2103 l 5620 2108 l 5614 2117 l 5605 2131 l 5594 2148 l
 5581 2168 l 5566 2190 l 5552 2212 l 5537 2234 l 5524 2255 l
 5511 2273 l 5500 2289 l 5491 2303 l 5482 2315 l 5475 2325 l
 5464 2339 l 5454 2350 l 5444 2361 l 5434 2371 l 5424 2380 l
 5414 2388 l 5407 2394 l 5402 2398 l 5400 2400 l gs col0 s gr 
% Polyline
n 5400 2400 m 5400 2625 l gs col0 s gr 
% Polyline
n 5400 2625 m 5475 2475 l gs col0 s gr 
% Polyline
n 5475 2475 m 5400 2400 l gs col0 s gr 
% Polyline
n 5400 2625 m 5402 2627 l 5407 2632 l 5415 2641 l 5426 2653 l 5440 2667 l
 5455 2684 l 5471 2701 l 5487 2717 l 5502 2732 l 5515 2745 l
 5528 2757 l 5539 2766 l 5550 2775 l 5563 2784 l 5576 2792 l
 5591 2801 l 5608 2809 l 5626 2818 l 5645 2826 l 5663 2834 l
 5678 2841 l 5690 2846 l 5697 2849 l 5700 2850 l gs col0 s gr 
% Polyline
n 6000 2400 m 5998 2402 l 5995 2407 l 5990 2416 l 5981 2428 l 5971 2444 l
 5959 2462 l 5945 2483 l 5931 2504 l 5917 2524 l 5904 2544 l
 5891 2563 l 5880 2580 l 5869 2596 l 5859 2611 l 5850 2625 l
 5841 2639 l 5831 2654 l 5820 2670 l 5809 2687 l 5796 2706 l
 5783 2726 l 5769 2746 l 5755 2768 l 5741 2788 l 5729 2806 l
 5719 2822 l 5710 2834 l 5705 2843 l 5702 2848 l 5700 2850 l gs col0 s gr 
% Polyline
30.000 slw
n 5550 2025 m 5250 2025 l 5250 2325 l gs col0 s gr 
% Polyline
7.500 slw
n 2700 975 m 2625 975 l 2625 825 l 2700 825 l cp gs col7 s gr 
% Polyline
n 2625 600 m 3600 600 l 3600 1050 l 2625 1050 l cp gs 0.00 setgray ef gr gs col0 s gr 
% Polyline
n 1125 450 m 3900 450 l 3900 1200 l 1125 1200 l cp gs col0 s gr 
% Polyline
n 7500 525 m 7500 1125 l gs col0 s gr 
% Polyline
n 5400 450 m 8400 450 l 8400 1200 l 5400 1200 l cp gs col0 s gr 
% Polyline
gs  clippath
5002 2309 m 5100 2400 l 4968 2424 l 5098 2462 l 5131 2347 l cp
clip
n 3975 1875 m 3977 1876 l 3980 1879 l 3987 1884 l 3997 1892 l 4011 1902 l
 4029 1915 l 4050 1931 l 4074 1949 l 4101 1968 l 4129 1989 l
 4158 2010 l 4187 2031 l 4216 2051 l 4245 2070 l 4273 2089 l
 4299 2106 l 4325 2122 l 4350 2136 l 4375 2150 l 4400 2163 l
 4425 2175 l 4447 2185 l 4470 2195 l 4495 2205 l 4521 2215 l
 4549 2226 l 4580 2236 l 4612 2248 l 4647 2259 l 4683 2271 l
 4722 2284 l 4761 2296 l 4801 2309 l 4841 2321 l 4881 2333 l
 4919 2345 l 4954 2356 l 4987 2366 l 5016 2375 l 5040 2382 l
 5060 2388 l 5076 2393 l 5100 2400 l gs col0 s gr gr

% arrowhead
n 5002 2309 m 5100 2400 l 4968 2424 l 4985 2366 l 5002 2309 l  cp gs 0.00 setgray ef gr  col0 s
% Polyline
gs  clippath
7441 1875 m 7575 1875 l 7495 1982 l 7615 1922 l 7562 1815 l cp
clip
n 6150 2325 m 6152 2325 l 6156 2324 l 6164 2323 l 6176 2321 l 6192 2318 l
 6214 2314 l 6240 2310 l 6272 2305 l 6307 2299 l 6345 2292 l
 6386 2285 l 6429 2278 l 6472 2270 l 6516 2262 l 6559 2254 l
 6601 2246 l 6641 2238 l 6680 2230 l 6717 2223 l 6751 2215 l
 6784 2207 l 6815 2199 l 6844 2192 l 6872 2183 l 6900 2175 l
 6927 2166 l 6955 2157 l 6983 2146 l 7012 2135 l 7043 2123 l
 7074 2109 l 7108 2095 l 7143 2080 l 7179 2064 l 7216 2046 l
 7254 2029 l 7293 2011 l 7331 1993 l 7369 1975 l 7405 1957 l
 7438 1941 l 7469 1926 l 7496 1913 l 7519 1902 l 7538 1893 l
 7553 1886 l 7575 1875 l gs col0 s gr gr

% arrowhead
n 7441 1875 m 7575 1875 l 7495 1982 l 7468 1929 l 7441 1875 l  cp gs 0.00 setgray ef gr  col0 s
/Helvetica ff 360.00 scf sf
1275 975 m
gs 1 -1 sc (Source ) col0 sh gr
/Helvetica ff 360.00 scf sf
2700 975 m
gs 1 -1 sc (Text) col7 sh gr
/Helvetica ff 360.00 scf sf
5550 975 m
gs 1 -1 sc (Destination Text) col0 sh gr
$F2psEnd
rs
